^C:\USERS\CODER\DOCUMENTS\NSU-OOP\B2T1\B2T1\BOY.C
/c /Zi /nologo /W3 /WX- /O2 /Oi /Oy- /GL /D WIN32 /D NDEBUG /D _CONSOLE /D _LIB /D _UNICODE /D UNICODE /Gm- /EHsc /MD /GS /Gy /fp:precise /Zc:wchar_t /Zc:forScope /Fo"RELEASE\\" /Fd"RELEASE\VC120.PDB" /Gd /TC /analyze- C:\USERS\CODER\DOCUMENTS\NSU-OOP\B2T1\B2T1\BOY.C
^C:\USERS\CODER\DOCUMENTS\NSU-OOP\B2T1\B2T1\GIRL.C
/c /Zi /nologo /W3 /WX- /O2 /Oi /Oy- /GL /D WIN32 /D NDEBUG /D _CONSOLE /D _LIB /D _UNICODE /D UNICODE /Gm- /EHsc /MD /GS /Gy /fp:precise /Zc:wchar_t /Zc:forScope /Fo"RELEASE\\" /Fd"RELEASE\VC120.PDB" /Gd /TC /analyze- C:\USERS\CODER\DOCUMENTS\NSU-OOP\B2T1\B2T1\GIRL.C
^C:\USERS\CODER\DOCUMENTS\NSU-OOP\B2T1\B2T1\GIRL_C.C
/c /Zi /nologo /W3 /WX- /O2 /Oi /Oy- /GL /D WIN32 /D NDEBUG /D _CONSOLE /D _LIB /D _UNICODE /D UNICODE /Gm- /EHsc /MD /GS /Gy /fp:precise /Zc:wchar_t /Zc:forScope /Fo"RELEASE\\" /Fd"RELEASE\VC120.PDB" /Gd /TC /analyze- C:\USERS\CODER\DOCUMENTS\NSU-OOP\B2T1\B2T1\GIRL_C.C
^C:\USERS\CODER\DOCUMENTS\NSU-OOP\B2T1\B2T1\PROFILE.C
/c /Zi /nologo /W3 /WX- /O2 /Oi /Oy- /GL /D WIN32 /D NDEBUG /D _CONSOLE /D _LIB /D _UNICODE /D UNICODE /Gm- /EHsc /MD /GS /Gy /fp:precise /Zc:wchar_t /Zc:forScope /Fo"RELEASE\\" /Fd"RELEASE\VC120.PDB" /Gd /TC /analyze- C:\USERS\CODER\DOCUMENTS\NSU-OOP\B2T1\B2T1\PROFILE.C
^C:\USERS\CODER\DOCUMENTS\NSU-OOP\B2T1\B2T1\RICHBOY.C
/c /Zi /nologo /W3 /WX- /O2 /Oi /Oy- /GL /D WIN32 /D NDEBUG /D _CONSOLE /D _LIB /D _UNICODE /D UNICODE /Gm- /EHsc /MD /GS /Gy /fp:precise /Zc:wchar_t /Zc:forScope /Fo"RELEASE\\" /Fd"RELEASE\VC120.PDB" /Gd /TC /analyze- C:\USERS\CODER\DOCUMENTS\NSU-OOP\B2T1\B2T1\RICHBOY.C
^C:\USERS\CODER\DOCUMENTS\NSU-OOP\B2T1\B2T1\USER.C
/c /Zi /nologo /W3 /WX- /O2 /Oi /Oy- /GL /D WIN32 /D NDEBUG /D _CONSOLE /D _LIB /D _UNICODE /D UNICODE /Gm- /EHsc /MD /GS /Gy /fp:precise /Zc:wchar_t /Zc:forScope /Fo"RELEASE\\" /Fd"RELEASE\VC120.PDB" /Gd /TC /analyze- C:\USERS\CODER\DOCUMENTS\NSU-OOP\B2T1\B2T1\USER.C
^C:\USERS\CODER\DOCUMENTS\NSU-OOP\B2T1\B2T1\MAIN.C
/c /Zi /nologo /W3 /WX- /O2 /Oi /Oy- /GL /D WIN32 /D NDEBUG /D _CONSOLE /D _LIB /D _UNICODE /D UNICODE /Gm- /EHsc /MD /GS /Gy /fp:precise /Zc:wchar_t /Zc:forScope /Fo"RELEASE\\" /Fd"RELEASE\VC120.PDB" /Gd /TC /analyze- C:\USERS\CODER\DOCUMENTS\NSU-OOP\B2T1\B2T1\MAIN.C
